{
  "name": "Frostzone World",
  "ultrawarm": false,
  "natural": true,
  "coordinate_scale": 0.125,
  "shrunk": false,
  "has_skylight": true,
  "has_ceiling": false,
  "ambient_light": 0.25,
  "fixed_time": 28000,
  "piglin_safe": false,
  "bed_works": true,
  "respawn_anchor_works": true,
  "has_raids": false,
  "logical_height": 256,
  "infiniburn": "minecraft:infiniburn_overworld",
  "effects": "mhfc:frostzone_render"
}